{
  "name": "aedronef1_backend",
  "env": "local",
  "host": {
    "address": "0.0.0.0",
    "port": 8000
  },
  "jwt": {
    "key": "",
    "forgotPasswordKey": "",
    "header": "Authorization",
    "schema": "Bearer",
    "otpLength": 6,
    "otpMaxAge": 90000000000,
    "accessMaxAge": 604800000000000,
    "refreshMaxAge": 691200000000000
  },
  "service": {},
  "database": {
    "postgres": {
      "timeout": 5000,
      "host": "0.0.0.0",
      "port": "5433",
      "dbname": "postgres",
      "user": "postgres",
      "password": "root"
    }
  },
  "redis": {
    "host": "0.0.0.0",
    "port": "6379"
  }
}
